{
	"_id":"507f1f77bcf86cd799439011",
	"title":"Introduction to Database Management",
	"description":"Learn How to Plan and efficiently manage data stored in a database",
	"price":3000,
	"isActive": true,
	"mobileNumer":"0928421221",
	"slots":"30",
	"enrolless":[]
}